Text Analysis in R
…
#thoreau_works_df <- gutenberg_download(id)

thoreau_works_df <- readRDS(file = "thoreau_works_df.rds")

thoreau_works_df <- thoreau_works_df %>% 
  left_join(.,thoreau, by = "gutenberg_id")

As you can see, the thoreau object is a data frame where each line from a book is connected to that books id. Just like the poem before, we can break the documents up into words for easier analysis and counts. We can also get a simple count of the top words in all of Thoreaus work.

thoreau_works_tidy <- thoreau_works_df %>% 
  unnest_tokens(word, text)

thoreau_works_tidy %>% count(word, sort = T)

## # A tibble: 29,132 x 2
##    word      n
##    <chr> <int>
##  1 the   53812
##  2 and   29194
##  3 of    25676
##  4 to    20148
##  5 a     19386
##  6 in    14894
##  7 i     10433
##  8 it    10157
##  9 that   8851
## 10 is     8484
## # ... with 29,122 more rows

We can also use the group_by function to separate the counts by book.

thoreau_works_tidy %>% group_by(gutenberg_id) %>% count(word, sort = T)

## # A tibble: 89,366 x 3
## # Groups:   gutenberg_id [12]
##    gutenberg_id word      n
##           <int> <chr> <int>
##  1         4232 the    8332
##  2        42553 the    8261
##  3        42500 the    7367
##  4          205 the    7349
##  5        43523 the    6411
##  6        34392 the    5890
##  7         9846 the    5425
##  8         4232 and    4841
##  9          205 and    4607
## 10        42553 and    4076
## # ... with 89,356 more rows

Uh oh! Have you noticed that the top words are all super boring or uninformative? These are terms we call stop words. Theyre grammatically important but usually they are substantively unimportant - especially for understanding the topics of certain texts. We can easily remove them in a variey of ways but I tend to use the anti_join function which will remove them from the dataset in one line of code. There are other ways of doing this as well that I may touch on later. But for now we can simply write.

Cleaning up Text

library(tidyr)
thoreau_works_tidy <- thoreau_works_tidy %>% 
  anti_join(stop_words) 

thoreau_works_tidy %>% count(word, sort = T)

## # A tibble: 28,468 x 2
##    word       n
##    <chr>  <int>
##  1 time    1204
##  2 day     1120
##  3 6        997
##  4 water    973
##  5 river    935
##  6 house    918
##  7 life     872
##  8 indian   838
##  9 woods    762
## 10 shore    725
## # ... with 28,458 more rows
…
The set of functions are grep() and grepl(). These two functions search through your data for patterns in character strings. Using grep will give you an index of where in the data the pattern of text is found. grepl is a logical function, so it returns a TRUE/FALSE statement for each row depending on if there is a pattern match.

Another powerful set of functions that follow from grep and grepl are sub() and gsub(). These functions will search for a character vector that matches a pattern and then replace it with something else.

Regex can look confusing or be obtuse if you dont know what youre looking for. If theres a specific problem with the text that you need to fix, consider looking at this regex cheat-sheet (https://www.rexegg.com/regex-quickstart.html).

But, for the general case of removing numbers and punctuation, the following code works. The first line looks for one or more digits (the \d+ means one or more digits). The second removes special characters (the ^ symbol says to look for characters that are not [:alnum:], which stands for numbers and letters). Finally, I remove thoreaus name because I know it will appear but the term isnt useful for analysis.

thoreau_works_tidy <- thoreau_works_tidy[-grep("\\b\\d+\\b", thoreau_works_tidy$word),]
thoreau_works_tidy <- thoreau_works_tidy[-grep("[^[:alnum:]]", thoreau_works_tidy$word),]
thoreau_works_tidy <- thoreau_works_tidy[-grep("thoreau", thoreau_works_tidy$word),]
thoreau_works_tidy %>% count(word, sort = T)

## # A tibble: 24,415 x 2
##    word       n
##    <chr>  <int>
##  1 time    1204
##  2 day     1120
##  3 water    973
##  4 river    935
##  5 house    918
##  6 life     872
##  7 indian   838
##  8 woods    762
##  9 shore    725
## 10 night    722
## # ... with 24,405 more rows
…
